Social Uses · Portfolio website for Yu Luo
…
degree: highest education level attained

Instagram and Snapchat, by sex

First, I want to estimate the population proportion of Snapchat or Instagram users in 2016

New variable snap_insta

Create a new variable, snap_insta that is Yes if the respondent reported using any of Snapchat (snapchat) or Instagram (instagrm), and No if not. If the recorded value was NA for both of these questions, the value in your new variable should also be NA.

gss<-gss%>%
  mutate(snap_insta=ifelse(snapchat=='Yes'|instagrm=='Yes','Yes', ifelse(snapchat=='NA'&instagrm=='NA','NA','No')))
gss

## # A tibble: 2,867 x 8
##    emailmin emailhr snapchat instagrm twitter sex    degree         snap_insta
##    <chr>    <chr>   <chr>    <chr>    <chr>   <chr>  <chr>          <chr>     
##  1 0        12      NA       NA       NA      Male   Bachelor       NA        
##  2 30       0       No       No       No      Male   High school    No        
##  3 NA       NA      No       No       No      Male   Bachelor       No        
##  4 10       0       NA       NA       NA      Female High school    NA        
##  5 NA       NA      Yes      Yes      No      Female Graduate       Yes       
##  6 0        2       No       Yes      No      Female Junior college Yes       
##  7 0        40      NA       NA       NA      Male   High school    NA        
##  8 NA       NA      Yes      Yes      No      Female High school    Yes       
##  9 0        0       NA       NA       NA      Male   High school    NA        
## 10 NA       NA      No       No       No      Male   Junior college No        
## # ... with 2,857 more rows
…
## Warning: Problem with `mutate()` input `emailmin`.
## i 强制改变过程中产生了NA
## i Input `emailmin` is `as.numeric(emailmin)`.

## Warning in mask$eval_all_mutate(dots[[i]]): 强制改变过程中产生了NA

## Warning: Problem with `mutate()` input `emailhr`.
## i 强制改变过程中产生了NA
## i Input `emailhr` is `as.numeric(emailhr)`.

## Warning in mask$eval_all_mutate(dots[[i]]): 强制改变过程中产生了NA

gss

## # A tibble: 2,867 x 10
##    emailmin emailhr snapchat instagrm twitter sex   degree snap_insta
##       <dbl>   <dbl> <chr>    <chr>    <chr>   <chr> <ord>  <chr>     
##  1        0      12 NA       NA       NA      Male  Bache~ NA        
##  2       30       0 No       No       No      Male  <NA>   No        
##  3       NA      NA No       No       No      Male  Bache~ No        
##  4       10       0 NA       NA       NA      Fema~ <NA>   NA        
##  5       NA      NA Yes      Yes      No      Fema~ Gradu~ Yes       
##  6        0       2 No       Yes      No      Fema~ Junio~ Yes       
##  7        0      40 NA       NA       NA      Male  <NA>   NA        
##  8       NA      NA Yes      Yes      No      Fema~ <NA>   Yes       
##  9        0       0 NA       NA       NA      Male  <NA>   NA        
## 10       NA      NA No       No       No      Male  Junio~ No        
## # ... with 2,857 more rows, and 2 more variables: bachelor_graduate <chr>,
## #   email <dbl>
…
